{
	"info": {
		"_postman_id": "8eaab786-5c04-43a9-af29-8d175a82fd7c",
		"name": "Coleccion de Pruebas",
		"schema": "https://schema.getpostman.com/json/collection/v2.1.0/collection.json"
	},
	"item": [
		{
			"name": "ContractById escenario exito CP1",
			"event": [
				{
					"listen": "test",
					"script": {
						"id": "7f578af6-1a70-4067-b47f-5802d95916d9",
						"exec": [
							"/*pm.test(\"Status code is 200\", function () {\r",
							"    pm.response.to.have.status(200);\r",
							"});\r",
							"*/\r",
							"\r",
							"pm.test(\"Validacion de mensage de error\", function()\r",
							"{ \r",
							"    var jsonData = pm.response.json();\r",
							"    pm.expect(jsonData.errors[0].message).to.be.equals(\"Identification is required\");\r",
							"});\r",
							"\r",
							"\r",
							"pm.test(\"Validacion de mensage de error\", function()\r",
							"{ \r",
							"    var jsonData = pm.response.json();\r",
							"    pm.expect(jsonData.errors[0].message).to.be.equals(\"Invalid consumer\");\r",
							"});\r",
							"\r",
							"pm.test(\"Validacion de mensage de error\", function()\r",
							"{ \r",
							"    var jsonData = pm.response.json();\r",
							"    pm.expect(jsonData.errors[0].message).to.be.equals(\"Invalid consumer\");\r",
							"});\r",
							"\r",
							"pm.test(\"Validacion de mensage de error\", function()\r",
							"{ \r",
							"    var jsonData = pm.response.json();\r",
							"    pm.expect(jsonData.errors[0].message).to.be.equals(\"Idtype is required\");\r",
							"});\r",
							"\r",
							"\r",
							"pm.test(\"Validacion de mensage de error\", function()\r",
							"{ \r",
							"    var jsonData = pm.response.json();\r",
							"    pm.expect(jsonData.errors[0].message).to.be.equals(\"Not Authorized\");\r",
							"});\r",
							"\r",
							"\r",
							"\r",
							"\r",
							"pm.test(\"Response time is less than 200ms\", function () {\r",
							"    pm.expect(pm.response.responseTime).to.be.below(800);\r",
							"});\r",
							"\r",
							"\r",
							"\r",
							"\r",
							"\r",
							"\r",
							""
						],
						"type": "text/javascript"
					}
				}
			],
			"request": {
				"method": "GET",
				"header": [],
				"url": {
					"raw": "{{endpoint}}home/tigo/hn/digital/account/customer/v1/id/{{Id}}/consumer/{{consumer}}?idtype={{idType}}",
					"host": [
						"{{endpoint}}home"
					],
					"path": [
						"tigo",
						"hn",
						"digital",
						"account",
						"customer",
						"v1",
						"id",
						"{{Id}}",
						"consumer",
						"{{consumer}}"
					],
					"query": [
						{
							"key": "idtype",
							"value": "{{idType}}"
						}
					]
				},
				"description": "Obtener contratos activos del cliente"
			},
			"response": []
		},
		{
			"name": "ContractById escenario idType vacio CP2",
			"event": [
				{
					"listen": "test",
					"script": {
						"id": "cc01e87b-0cee-44d1-b869-859e3aef7dcb",
						"exec": [
							"/*pm.test(\"Status code is 200\", function () {\r",
							"    pm.response.to.have.status(200);\r",
							"});\r",
							"*/\r",
							"\r",
							"pm.test(\"Validacion de mensage de error\", function()\r",
							"{ \r",
							"    var jsonData = pm.response.json();\r",
							"    pm.expect(jsonData.errors[0].message).to.be.equals(\"Identification is required\");\r",
							"});\r",
							"\r",
							"\r",
							"pm.test(\"Validacion de mensage de error\", function()\r",
							"{ \r",
							"    var jsonData = pm.response.json();\r",
							"    pm.expect(jsonData.errors[0].message).to.be.equals(\"Invalid consumer\");\r",
							"});\r",
							"\r",
							"pm.test(\"Validacion de mensage de error\", function()\r",
							"{ \r",
							"    var jsonData = pm.response.json();\r",
							"    pm.expect(jsonData.errors[0].message).to.be.equals(\"Invalid consumer\");\r",
							"});\r",
							"\r",
							"pm.test(\"Validacion de mensage de error\", function()\r",
							"{ \r",
							"    var jsonData = pm.response.json();\r",
							"    pm.expect(jsonData.errors[0].message).to.be.equals(\"Idtype is required\");\r",
							"});\r",
							"\r",
							"\r",
							"pm.test(\"Validacion de mensage de error\", function()\r",
							"{ \r",
							"    var jsonData = pm.response.json();\r",
							"    pm.expect(jsonData.errors[0].message).to.be.equals(\"Not Authorized\");\r",
							"});\r",
							"\r",
							"\r",
							"\r",
							"\r",
							"pm.test(\"Response time is less than 200ms\", function () {\r",
							"    pm.expect(pm.response.responseTime).to.be.below(800);\r",
							"});\r",
							"\r",
							"\r",
							"\r",
							"\r",
							"\r",
							"\r",
							""
						],
						"type": "text/javascript"
					}
				}
			],
			"request": {
				"method": "GET",
				"header": [],
				"url": {
					"raw": "{{endpoint}}home/tigo/hn/digital/account/customer/v1/id/{{Id}}/consumer/{{consumer}}?idtype={{idType}}",
					"host": [
						"{{endpoint}}home"
					],
					"path": [
						"tigo",
						"hn",
						"digital",
						"account",
						"customer",
						"v1",
						"id",
						"{{Id}}",
						"consumer",
						"{{consumer}}"
					],
					"query": [
						{
							"key": "idtype",
							"value": "{{idType}}"
						}
					]
				},
				"description": "Obtener contratos activos del cliente"
			},
			"response": []
		},
		{
			"name": "ContractById escenario consumer vacio CP2",
			"event": [
				{
					"listen": "test",
					"script": {
						"id": "ab20745a-68e1-4b97-96e9-bceb89e72cfb",
						"exec": [
							"/*pm.test(\"Status code is 200\", function () {\r",
							"    pm.response.to.have.status(200);\r",
							"});\r",
							"*/\r",
							"\r",
							"pm.test(\"Validacion de mensage de error\", function()\r",
							"{ \r",
							"    var jsonData = pm.response.json();\r",
							"    pm.expect(jsonData.errors[0].message).to.be.equals(\"Identification is required\");\r",
							"});\r",
							"\r",
							"\r",
							"pm.test(\"Validacion de mensage de error\", function()\r",
							"{ \r",
							"    var jsonData = pm.response.json();\r",
							"    pm.expect(jsonData.errors[0].message).to.be.equals(\"Invalid consumer\");\r",
							"});\r",
							"\r",
							"pm.test(\"Validacion de mensage de error\", function()\r",
							"{ \r",
							"    var jsonData = pm.response.json();\r",
							"    pm.expect(jsonData.errors[0].message).to.be.equals(\"Invalid consumer\");\r",
							"});\r",
							"\r",
							"pm.test(\"Validacion de mensage de error\", function()\r",
							"{ \r",
							"    var jsonData = pm.response.json();\r",
							"    pm.expect(jsonData.errors[0].message).to.be.equals(\"Idtype is required\");\r",
							"});\r",
							"\r",
							"\r",
							"pm.test(\"Validacion de mensage de error\", function()\r",
							"{ \r",
							"    var jsonData = pm.response.json();\r",
							"    pm.expect(jsonData.errors[0].message).to.be.equals(\"Not Authorized\");\r",
							"});\r",
							"\r",
							"\r",
							"\r",
							"\r",
							"pm.test(\"Response time is less than 200ms\", function () {\r",
							"    pm.expect(pm.response.responseTime).to.be.below(800);\r",
							"});\r",
							"\r",
							"\r",
							"\r",
							"\r",
							"\r",
							"\r",
							""
						],
						"type": "text/javascript"
					}
				}
			],
			"request": {
				"method": "GET",
				"header": [],
				"url": {
					"raw": "{{endpoint}}home/tigo/hn/digital/account/customer/v1/id/{{Id}}/consumer/{{consumer}}?idtype={{idType}}",
					"host": [
						"{{endpoint}}home"
					],
					"path": [
						"tigo",
						"hn",
						"digital",
						"account",
						"customer",
						"v1",
						"id",
						"{{Id}}",
						"consumer",
						"{{consumer}}"
					],
					"query": [
						{
							"key": "idtype",
							"value": "{{idType}}"
						}
					]
				},
				"description": "Obtener contratos activos del cliente"
			},
			"response": []
		},
		{
			"name": "ContractById escenario id vacio CP2",
			"event": [
				{
					"listen": "test",
					"script": {
						"id": "97ba7f62-f83f-43a1-a2fb-d61b14c88a8b",
						"exec": [
							"/*pm.test(\"Status code is 200\", function () {\r",
							"    pm.response.to.have.status(200);\r",
							"});\r",
							"*/\r",
							"\r",
							"pm.test(\"Validacion de mensage de error\", function()\r",
							"{ \r",
							"    var jsonData = pm.response.json();\r",
							"    pm.expect(jsonData.errors[0].message).to.be.equals(\"Identification is required\");\r",
							"});\r",
							"\r",
							"\r",
							"pm.test(\"Validacion de mensage de error\", function()\r",
							"{ \r",
							"    var jsonData = pm.response.json();\r",
							"    pm.expect(jsonData.errors[0].message).to.be.equals(\"Invalid consumer\");\r",
							"});\r",
							"\r",
							"pm.test(\"Validacion de mensage de error\", function()\r",
							"{ \r",
							"    var jsonData = pm.response.json();\r",
							"    pm.expect(jsonData.errors[0].message).to.be.equals(\"Invalid consumer\");\r",
							"});\r",
							"\r",
							"pm.test(\"Validacion de mensage de error\", function()\r",
							"{ \r",
							"    var jsonData = pm.response.json();\r",
							"    pm.expect(jsonData.errors[0].message).to.be.equals(\"Idtype is required\");\r",
							"});\r",
							"\r",
							"\r",
							"pm.test(\"Validacion de mensage de error\", function()\r",
							"{ \r",
							"    var jsonData = pm.response.json();\r",
							"    pm.expect(jsonData.errors[0].message).to.be.equals(\"Not Authorized\");\r",
							"});\r",
							"\r",
							"\r",
							"\r",
							"\r",
							"pm.test(\"Response time is less than 200ms\", function () {\r",
							"    pm.expect(pm.response.responseTime).to.be.below(800);\r",
							"});\r",
							"\r",
							"\r",
							"\r",
							"\r",
							"\r",
							"\r",
							""
						],
						"type": "text/javascript"
					}
				}
			],
			"request": {
				"method": "GET",
				"header": [],
				"url": {
					"raw": "{{endpoint}}home/tigo/hn/digital/account/customer/v1/id/{{Id}}/consumer/{{consumer}}?idtype={{idType}}",
					"host": [
						"{{endpoint}}home"
					],
					"path": [
						"tigo",
						"hn",
						"digital",
						"account",
						"customer",
						"v1",
						"id",
						"{{Id}}",
						"consumer",
						"{{consumer}}"
					],
					"query": [
						{
							"key": "idtype",
							"value": "{{idType}}"
						}
					]
				},
				"description": "Obtener contratos activos del cliente"
			},
			"response": []
		},
		{
			"name": "ContractById escenario acepte guiones el Id CP2",
			"event": [
				{
					"listen": "test",
					"script": {
						"id": "d5ce6a9f-f762-45af-aa8d-e88c58d3a437",
						"exec": [
							"/*pm.test(\"Status code is 200\", function () {\r",
							"    pm.response.to.have.status(200);\r",
							"});\r",
							"*/\r",
							"\r",
							"pm.test(\"Validacion de mensage de error\", function()\r",
							"{ \r",
							"    var jsonData = pm.response.json();\r",
							"    pm.expect(jsonData.errors[0].message).to.be.equals(\"Identification is required\");\r",
							"});\r",
							"\r",
							"\r",
							"pm.test(\"Validacion de mensage de error\", function()\r",
							"{ \r",
							"    var jsonData = pm.response.json();\r",
							"    pm.expect(jsonData.errors[0].message).to.be.equals(\"Invalid consumer\");\r",
							"});\r",
							"\r",
							"pm.test(\"Validacion de mensage de error\", function()\r",
							"{ \r",
							"    var jsonData = pm.response.json();\r",
							"    pm.expect(jsonData.errors[0].message).to.be.equals(\"Invalid consumer\");\r",
							"});\r",
							"\r",
							"pm.test(\"Validacion de mensage de error\", function()\r",
							"{ \r",
							"    var jsonData = pm.response.json();\r",
							"    pm.expect(jsonData.errors[0].message).to.be.equals(\"Idtype is required\");\r",
							"});\r",
							"\r",
							"\r",
							"pm.test(\"Validacion de mensage de error\", function()\r",
							"{ \r",
							"    var jsonData = pm.response.json();\r",
							"    pm.expect(jsonData.errors[0].message).to.be.equals(\"Not Authorized\");\r",
							"});\r",
							"\r",
							"\r",
							"\r",
							"\r",
							"pm.test(\"Response time is less than 200ms\", function () {\r",
							"    pm.expect(pm.response.responseTime).to.be.below(800);\r",
							"});\r",
							"\r",
							"\r",
							"\r",
							"\r",
							"\r",
							"\r",
							""
						],
						"type": "text/javascript"
					}
				}
			],
			"request": {
				"method": "GET",
				"header": [],
				"url": {
					"raw": "{{endpoint}}home/tigo/hn/digital/account/customer/v1/id/{{Id}}/consumer/{{consumer}}?idtype={{idType}}",
					"host": [
						"{{endpoint}}home"
					],
					"path": [
						"tigo",
						"hn",
						"digital",
						"account",
						"customer",
						"v1",
						"id",
						"{{Id}}",
						"consumer",
						"{{consumer}}"
					],
					"query": [
						{
							"key": "idtype",
							"value": "{{idType}}"
						}
					]
				},
				"description": "Obtener contratos activos del cliente"
			},
			"response": []
		},
		{
			"name": "ContractById escenario Authorization CP2",
			"event": [
				{
					"listen": "test",
					"script": {
						"id": "e1ff4cd1-0f69-4c69-8ac1-43b3ab200cf9",
						"exec": [
							"/*pm.test(\"Status code is 200\", function () {\r",
							"    pm.response.to.have.status(200);\r",
							"});\r",
							"*/\r",
							"\r",
							"pm.test(\"Validacion de mensage de error\", function()\r",
							"{ \r",
							"    var jsonData = pm.response.json();\r",
							"    pm.expect(jsonData.errors[0].message).to.be.equals(\"Identification is required\");\r",
							"});\r",
							"\r",
							"\r",
							"pm.test(\"Validacion de mensage de error\", function()\r",
							"{ \r",
							"    var jsonData = pm.response.json();\r",
							"    pm.expect(jsonData.errors[0].message).to.be.equals(\"Invalid consumer\");\r",
							"});\r",
							"\r",
							"pm.test(\"Validacion de mensage de error\", function()\r",
							"{ \r",
							"    var jsonData = pm.response.json();\r",
							"    pm.expect(jsonData.errors[0].message).to.be.equals(\"Invalid consumer\");\r",
							"});\r",
							"\r",
							"pm.test(\"Validacion de mensage de error\", function()\r",
							"{ \r",
							"    var jsonData = pm.response.json();\r",
							"    pm.expect(jsonData.errors[0].message).to.be.equals(\"Idtype is required\");\r",
							"});\r",
							"\r",
							"\r",
							"pm.test(\"Validacion de mensage de error\", function()\r",
							"{ \r",
							"    var jsonData = pm.response.json();\r",
							"    pm.expect(jsonData.errors[0].message).to.be.equals(\"Not Authorized\");\r",
							"});\r",
							"\r",
							"\r",
							"\r",
							"\r",
							"pm.test(\"Response time is less than 200ms\", function () {\r",
							"    pm.expect(pm.response.responseTime).to.be.below(800);\r",
							"});\r",
							"\r",
							"\r",
							"\r",
							"\r",
							"\r",
							"\r",
							""
						],
						"type": "text/javascript"
					}
				}
			],
			"request": {
				"method": "GET",
				"header": [],
				"url": {
					"raw": "{{endpoint}}home/tigo/hn/digital/account/customer/v1/id/{{Id}}/consumer/{{consumer}}?idtype={{idType}}",
					"host": [
						"{{endpoint}}home"
					],
					"path": [
						"tigo",
						"hn",
						"digital",
						"account",
						"customer",
						"v1",
						"id",
						"{{Id}}",
						"consumer",
						"{{consumer}}"
					],
					"query": [
						{
							"key": "idtype",
							"value": "{{idType}}"
						}
					]
				},
				"description": "Obtener contratos activos del cliente"
			},
			"response": []
		},
		{
			"name": "ContractById escenario consumer no acepte c@especiales CP2",
			"event": [
				{
					"listen": "test",
					"script": {
						"id": "081042a0-316b-4445-9516-7ccb7c399bae",
						"exec": [
							"/*pm.test(\"Status code is 200\", function () {\r",
							"    pm.response.to.have.status(200);\r",
							"});\r",
							"*/\r",
							"\r",
							"pm.test(\"Validacion de mensage de error\", function()\r",
							"{ \r",
							"    var jsonData = pm.response.json();\r",
							"    pm.expect(jsonData.errors[0].message).to.be.equals(\"Identification is required\");\r",
							"});\r",
							"\r",
							"\r",
							"pm.test(\"Validacion de mensage de error\", function()\r",
							"{ \r",
							"    var jsonData = pm.response.json();\r",
							"    pm.expect(jsonData.errors[0].message).to.be.equals(\"Invalid consumer\");\r",
							"});\r",
							"\r",
							"pm.test(\"Validacion de mensage de error\", function()\r",
							"{ \r",
							"    var jsonData = pm.response.json();\r",
							"    pm.expect(jsonData.errors[0].message).to.be.equals(\"Invalid consumer\");\r",
							"});\r",
							"\r",
							"pm.test(\"Validacion de mensage de error\", function()\r",
							"{ \r",
							"    var jsonData = pm.response.json();\r",
							"    pm.expect(jsonData.errors[0].message).to.be.equals(\"Idtype is required\");\r",
							"});\r",
							"\r",
							"\r",
							"pm.test(\"Validacion de mensage de error\", function()\r",
							"{ \r",
							"    var jsonData = pm.response.json();\r",
							"    pm.expect(jsonData.errors[0].message).to.be.equals(\"Not Authorized\");\r",
							"});\r",
							"\r",
							"\r",
							"\r",
							"\r",
							"pm.test(\"Response time is less than 200ms\", function () {\r",
							"    pm.expect(pm.response.responseTime).to.be.below(800);\r",
							"});\r",
							"\r",
							"\r",
							"\r",
							"\r",
							"\r",
							"\r",
							""
						],
						"type": "text/javascript"
					}
				}
			],
			"request": {
				"method": "GET",
				"header": [],
				"url": {
					"raw": "{{endpoint}}home/tigo/hn/digital/account/customer/v1/id/{{Id}}/consumer/{{consumer}}?idtype={{idType}}",
					"host": [
						"{{endpoint}}home"
					],
					"path": [
						"tigo",
						"hn",
						"digital",
						"account",
						"customer",
						"v1",
						"id",
						"{{Id}}",
						"consumer",
						"{{consumer}}"
					],
					"query": [
						{
							"key": "idtype",
							"value": "{{idType}}"
						}
					]
				},
				"description": "Obtener contratos activos del cliente"
			},
			"response": []
		},
		{
			"name": "ContractById escenario consumer tipo de dato CP2",
			"event": [
				{
					"listen": "test",
					"script": {
						"id": "27a940a6-8d34-4c84-9843-e7142a5e02f2",
						"exec": [
							"/*pm.test(\"Status code is 200\", function () {\r",
							"    pm.response.to.have.status(200);\r",
							"});\r",
							"*/\r",
							"\r",
							"pm.test(\"Validacion de mensage de error\", function()\r",
							"{ \r",
							"    var jsonData = pm.response.json();\r",
							"    pm.expect(jsonData.errors[0].message).to.be.equals(\"Identification is required\");\r",
							"});\r",
							"\r",
							"\r",
							"pm.test(\"Validacion de mensage de error\", function()\r",
							"{ \r",
							"    var jsonData = pm.response.json();\r",
							"    pm.expect(jsonData.errors[0].message).to.be.equals(\"Invalid consumer\");\r",
							"});\r",
							"\r",
							"pm.test(\"Validacion de mensage de error\", function()\r",
							"{ \r",
							"    var jsonData = pm.response.json();\r",
							"    pm.expect(jsonData.errors[0].message).to.be.equals(\"Invalid consumer\");\r",
							"});\r",
							"\r",
							"pm.test(\"Validacion de mensage de error\", function()\r",
							"{ \r",
							"    var jsonData = pm.response.json();\r",
							"    pm.expect(jsonData.errors[0].message).to.be.equals(\"Idtype is required\");\r",
							"});\r",
							"\r",
							"\r",
							"pm.test(\"Validacion de mensage de error\", function()\r",
							"{ \r",
							"    var jsonData = pm.response.json();\r",
							"    pm.expect(jsonData.errors[0].message).to.be.equals(\"Not Authorized\");\r",
							"});\r",
							"\r",
							"\r",
							"\r",
							"\r",
							"pm.test(\"Response time is less than 200ms\", function () {\r",
							"    pm.expect(pm.response.responseTime).to.be.below(800);\r",
							"});\r",
							"\r",
							"\r",
							"\r",
							"\r",
							"\r",
							"\r",
							""
						],
						"type": "text/javascript"
					}
				}
			],
			"request": {
				"method": "GET",
				"header": [],
				"url": {
					"raw": "{{endpoint}}home/tigo/hn/digital/account/customer/v1/id/{{Id}}/consumer/{{consumer}}?idtype={{idType}}",
					"host": [
						"{{endpoint}}home"
					],
					"path": [
						"tigo",
						"hn",
						"digital",
						"account",
						"customer",
						"v1",
						"id",
						"{{Id}}",
						"consumer",
						"{{consumer}}"
					],
					"query": [
						{
							"key": "idtype",
							"value": "{{idType}}"
						}
					]
				},
				"description": "Obtener contratos activos del cliente"
			},
			"response": []
		},
		{
			"name": "ContractById escenario cliente no tiene contratos CP2 para el Id",
			"event": [
				{
					"listen": "test",
					"script": {
						"id": "746e302d-ae14-4db4-b247-ce8d6e36755f",
						"exec": [
							"/*pm.test(\"Status code is 200\", function () {\r",
							"    pm.response.to.have.status(200);\r",
							"});\r",
							"*/\r",
							"\r",
							"pm.test(\"Validacion de mensage de error\", function()\r",
							"{ \r",
							"    var jsonData = pm.response.json();\r",
							"    pm.expect(jsonData.errors[0].message).to.be.equals(\"Identification is required\");\r",
							"});\r",
							"\r",
							"\r",
							"pm.test(\"Validacion de mensage de error\", function()\r",
							"{ \r",
							"    var jsonData = pm.response.json();\r",
							"    pm.expect(jsonData.errors[0].message).to.be.equals(\"Invalid consumer\");\r",
							"});\r",
							"\r",
							"pm.test(\"Validacion de mensage de error\", function()\r",
							"{ \r",
							"    var jsonData = pm.response.json();\r",
							"    pm.expect(jsonData.errors[0].message).to.be.equals(\"Invalid consumer\");\r",
							"});\r",
							"\r",
							"pm.test(\"Validacion de mensage de error\", function()\r",
							"{ \r",
							"    var jsonData = pm.response.json();\r",
							"    pm.expect(jsonData.errors[0].message).to.be.equals(\"Idtype is required\");\r",
							"});\r",
							"\r",
							"\r",
							"pm.test(\"Validacion de mensage de error\", function()\r",
							"{ \r",
							"    var jsonData = pm.response.json();\r",
							"    pm.expect(jsonData.errors[0].message).to.be.equals(\"Not Authorized\");\r",
							"});\r",
							"\r",
							"\r",
							"\r",
							"\r",
							"pm.test(\"Response time is less than 200ms\", function () {\r",
							"    pm.expect(pm.response.responseTime).to.be.below(800);\r",
							"});\r",
							"\r",
							"\r",
							"\r",
							"\r",
							"\r",
							"\r",
							""
						],
						"type": "text/javascript"
					}
				}
			],
			"request": {
				"method": "GET",
				"header": [],
				"url": {
					"raw": "{{endpoint}}home/tigo/hn/digital/account/customer/v1/id/{{Id}}/consumer/{{consumer}}?idtype={{idType}}",
					"host": [
						"{{endpoint}}home"
					],
					"path": [
						"tigo",
						"hn",
						"digital",
						"account",
						"customer",
						"v1",
						"id",
						"{{Id}}",
						"consumer",
						"{{consumer}}"
					],
					"query": [
						{
							"key": "idtype",
							"value": "{{idType}}"
						}
					]
				},
				"description": "Obtener contratos activos del cliente"
			},
			"response": []
		},
		{
			"name": "ContractById escenario cuando no se puede consumir el Query Amsys CP2",
			"event": [
				{
					"listen": "test",
					"script": {
						"id": "52dc7e28-c3b9-435d-abc8-ea1ec03cd3f2",
						"exec": [
							"/*pm.test(\"Status code is 200\", function () {\r",
							"    pm.response.to.have.status(200);\r",
							"});\r",
							"*/\r",
							"\r",
							"pm.test(\"Validacion de mensage de error\", function()\r",
							"{ \r",
							"    var jsonData = pm.response.json();\r",
							"    pm.expect(jsonData.errors[0].message).to.be.equals(\"Identification is required\");\r",
							"});\r",
							"\r",
							"\r",
							"pm.test(\"Validacion de mensage de error\", function()\r",
							"{ \r",
							"    var jsonData = pm.response.json();\r",
							"    pm.expect(jsonData.errors[0].message).to.be.equals(\"Invalid consumer\");\r",
							"});\r",
							"\r",
							"pm.test(\"Validacion de mensage de error\", function()\r",
							"{ \r",
							"    var jsonData = pm.response.json();\r",
							"    pm.expect(jsonData.errors[0].message).to.be.equals(\"Invalid consumer\");\r",
							"});\r",
							"\r",
							"pm.test(\"Validacion de mensage de error\", function()\r",
							"{ \r",
							"    var jsonData = pm.response.json();\r",
							"    pm.expect(jsonData.errors[0].message).to.be.equals(\"Idtype is required\");\r",
							"});\r",
							"\r",
							"\r",
							"pm.test(\"Validacion de mensage de error\", function()\r",
							"{ \r",
							"    var jsonData = pm.response.json();\r",
							"    pm.expect(jsonData.errors[0].message).to.be.equals(\"Not Authorized\");\r",
							"});\r",
							"\r",
							"\r",
							"\r",
							"\r",
							"pm.test(\"Response time is less than 200ms\", function () {\r",
							"    pm.expect(pm.response.responseTime).to.be.below(800);\r",
							"});\r",
							"\r",
							"\r",
							"\r",
							"\r",
							"\r",
							"\r",
							""
						],
						"type": "text/javascript"
					}
				}
			],
			"request": {
				"method": "GET",
				"header": [],
				"url": {
					"raw": "{{endpoint}}home/tigo/hn/digital/account/customer/v1/id/{{Id}}/consumer/{{consumer}}?idtype={{idType}}",
					"host": [
						"{{endpoint}}home"
					],
					"path": [
						"tigo",
						"hn",
						"digital",
						"account",
						"customer",
						"v1",
						"id",
						"{{Id}}",
						"consumer",
						"{{consumer}}"
					],
					"query": [
						{
							"key": "idtype",
							"value": "{{idType}}"
						}
					]
				},
				"description": "Obtener contratos activos del cliente"
			},
			"response": []
		}
	],
	"event": [
		{
			"listen": "prerequest",
			"script": {
				"id": "fd1a3949-bb25-47cd-ba22-c5cc34965fca",
				"type": "text/javascript",
				"exec": [
					""
				]
			}
		},
		{
			"listen": "test",
			"script": {
				"id": "70c1330d-5d70-4466-8c8a-fa471f36bee5",
				"type": "text/javascript",
				"exec": [
					""
				]
			}
		}
	],
	"variable": [
		{
			"id": "113791a4-ffc6-4a5b-94f3-5d986ce1689f",
			"key": "Id",
			"value": "1707-2006-04780"
		},
		{
			"id": "47c89f2c-41b1-4360-b5c3-740508a662b7",
			"key": "consumer",
			"value": "24"
		},
		{
			"id": "533bc399-75ca-4e07-a340-595fe39510cd",
			"key": "idType",
			"value": ""
		},
		{
			"id": "2c547b68-d853-4dfd-ad34-c819d91183f8",
			"key": "Authorization",
			"value": "No Auth"
		}
	],
	"protocolProfileBehavior": {}
}